-- Merging decision tree log ---
manifest
ADDED from /Users/puzhiguang/flyAndroid/libcocos2dx/src/main/AndroidManifest.xml:2:1-9:12
INJECTED from /Users/puzhiguang/flyAndroid/libcocos2dx/src/main/AndroidManifest.xml:2:1-9:12
INJECTED from /Users/puzhiguang/flyAndroid/libcocos2dx/src/main/AndroidManifest.xml:2:1-9:12
INJECTED from /Users/puzhiguang/flyAndroid/libcocos2dx/src/main/AndroidManifest.xml:2:1-9:12
INJECTED from /Users/puzhiguang/flyAndroid/libcocos2dx/src/main/AndroidManifest.xml:2:1-9:12
INJECTED from /Users/puzhiguang/flyAndroid/libcocos2dx/src/main/AndroidManifest.xml:2:1-9:12
INJECTED from /Users/puzhiguang/flyAndroid/libcocos2dx/src/main/AndroidManifest.xml:2:1-9:12
	package
		ADDED from /Users/puzhiguang/flyAndroid/libcocos2dx/src/main/AndroidManifest.xml:3:5-31
		INJECTED from /Users/puzhiguang/flyAndroid/libcocos2dx/src/main/AndroidManifest.xml
		INJECTED from /Users/puzhiguang/flyAndroid/libcocos2dx/src/main/AndroidManifest.xml
	android:versionName
		ADDED from /Users/puzhiguang/flyAndroid/libcocos2dx/src/main/AndroidManifest.xml:5:5-30
		INJECTED from /Users/puzhiguang/flyAndroid/libcocos2dx/src/main/AndroidManifest.xml
		INJECTED from /Users/puzhiguang/flyAndroid/libcocos2dx/src/main/AndroidManifest.xml
	xmlns:android
		ADDED from /Users/puzhiguang/flyAndroid/libcocos2dx/src/main/AndroidManifest.xml:2:11-69
	android:versionCode
		ADDED from /Users/puzhiguang/flyAndroid/libcocos2dx/src/main/AndroidManifest.xml:4:5-28
		INJECTED from /Users/puzhiguang/flyAndroid/libcocos2dx/src/main/AndroidManifest.xml
		INJECTED from /Users/puzhiguang/flyAndroid/libcocos2dx/src/main/AndroidManifest.xml
uses-sdk
INJECTED from /Users/puzhiguang/flyAndroid/libcocos2dx/src/main/AndroidManifest.xml reason: use-sdk injection requested
INJECTED from /Users/puzhiguang/flyAndroid/libcocos2dx/src/main/AndroidManifest.xml
INJECTED from /Users/puzhiguang/flyAndroid/libcocos2dx/src/main/AndroidManifest.xml
INJECTED from /Users/puzhiguang/flyAndroid/libcocos2dx/src/main/AndroidManifest.xml
INJECTED from /Users/puzhiguang/flyAndroid/libcocos2dx/src/main/AndroidManifest.xml
	android:targetSdkVersion
		INJECTED from /Users/puzhiguang/flyAndroid/libcocos2dx/src/main/AndroidManifest.xml
		ADDED from /Users/puzhiguang/flyAndroid/libcocos2dx/src/main/AndroidManifest.xml
		INJECTED from /Users/puzhiguang/flyAndroid/libcocos2dx/src/main/AndroidManifest.xml
	android:minSdkVersion
		INJECTED from /Users/puzhiguang/flyAndroid/libcocos2dx/src/main/AndroidManifest.xml
		ADDED from /Users/puzhiguang/flyAndroid/libcocos2dx/src/main/AndroidManifest.xml
		INJECTED from /Users/puzhiguang/flyAndroid/libcocos2dx/src/main/AndroidManifest.xml
